{
  "data": [
    {
      "cases": 15587,
      "date": "2020-12-28T00:00:00.000Z"
    },
    {
      "cases": 27130,
      "date": "2020-12-29T00:00:00.000Z"
    },
    {
      "cases": 30295,
      "date": "2020-12-30T00:00:00.000Z"
    },
    {
      "cases": 18902,
      "date": "2020-12-31T00:00:00.000Z"
    },
    {
      "cases": 10031,
      "date": "2021-01-01T00:00:00.000Z"
    },
    {
      "cases": 8540,
      "date": "2021-01-02T00:00:00.000Z"
    },
    {
      "cases": 5409,
      "date": "2021-01-03T00:00:00.000Z"
    }
  ]
}
